{
  "sectionTitle": "Fairplay",
  "videoItems": [
    {
      "assetID": "ITVTEST_DTX_KEYID",
      "title": "SDK itv KEYID",
      "videoUrl": "https://itviis.iptvng.eu.org/web2/ITV/NoEncoding/VIDEOID_0220/HLS_DASH_CBCS/DTX/ITVTEST_DTX.m3u8",
      "protocol": "HLS",
      "protection": "FAIRPLAY",
      "description": "contenuto test"
    },
    {
      "assetID": "ITVTEST_DTX_VIDEOID",
      "title": "SDK itv videoID DTX",
      "videoUrl": "https://itviis.iptvng.eu.org/web2/ITVnew/NoEncoding/VIDEOID_0220/HLS_DASH_CBCS/DTX/ITVTEST_DTX.m3u8",
      "protocol": "HLS",
      "protection": "Fairplay",
      "description": "Contenuti no subtitle w tag"
    }
  ]
}